%YAML 1.1
%TAG !u! tag:unity3d.com,2011:
--- !u!78 &1
TagManager:
  serializedVersion: 2
  tags:
  - EquipedImage
  layers:
  - Default
  - TransparentFX
  - Ignore Raycast
  - Background
  - Water
  - UI
  - Bullet
  - Game UI
  - 
  - 
  - 
  - 
  - 
  - 
  - 
  - 
  - 
  - 
  - 
  - 
  - 
  - 
  - 
  - 
  - 
  - 
  - 
  - 
  - 
  - 
  - 
  - 
  m_SortingLayers:
  - name: Default
    uniqueID: 0
    locked: 0
  - name: New Layer 1
    uniqueID: 3433602601
    locked: 0
